module company_service

go 1.18

require (
	github.com/dgrijalva/jwt-go v3.2.0+incompatible
	github.com/golang/protobuf v1.5.2
	github.com/google/uuid v1.1.2
	github.com/jackc/pgx/v4 v4.16.1
	github.com/joho/godotenv v1.4.0
	github.com/spf13/cast v1.5.0
	go.uber.org/zap v1.21.0
	golang.org/x/crypto v0.0.0-20210711020723-a769d52b0f97
	google.golang.org/grpc v1.47.0
	google.golang.org/protobuf v1.28.0
)

require (
	github.com/jackc/chunkreader/v2 v2.0.1 // indirect
	github.com/jackc/pgconn v1.12.1 // indirect
	github.com/jackc/pgio v1.0.0 // indirect
	github.com/jackc/pgpassfile v1.0.0 // indirect
	github.com/jackc/pgproto3/v2 v2.3.0 // indirect
	github.com/jackc/pgservicefile v0.0.0-20200714003250-2b9c44734f2b // indirect
	github.com/jackc/pgtype v1.11.0 // indirect
	github.com/jackc/puddle v1.2.1 // indirect
	go.uber.org/atomic v1.7.0 // indirect
	go.uber.org/multierr v1.6.0 // indirect
	golang.org/x/net v0.0.0-20210405180319-a5a99cb37ef4 // indirect
	golang.org/x/sys v0.0.0-20210615035016-665e8c7367d1 // indirect
	golang.org/x/text v0.3.7 // indirect
	google.golang.org/genproto v0.0.0-20200526211855-cb27e3aa2013 // indirect
)
